<?xml version="1.0" encoding="UTF-8" standalone="no"?>
<svg
   xmlns:dc="http://purl.org/dc/elements/1.1/"
   xmlns:cc="http://creativecommons.org/ns#"
   xmlns:rdf="http://www.w3.org/1999/02/22-rdf-syntax-ns#"
   xmlns:svg="http://www.w3.org/2000/svg"
   xmlns="http://www.w3.org/2000/svg"
   xmlns:sodipodi="http://sodipodi.sourceforge.net/DTD/sodipodi-0.dtd"
   xmlns:inkscape="http://www.inkscape.org/namespaces/inkscape"
   version="1.0"
   width="345.65967"
   height="126.097"
   id="svg2996"
   inkscape:version="0.48.2 r9819"
   sodipodi:docname="sensor.svg">
  <metadata
     id="metadata3210">
    <rdf:RDF>
      <cc:Work
         rdf:about="">
        <dc:format>image/svg+xml</dc:format>
        <dc:type
           rdf:resource="http://purl.org/dc/dcmitype/StillImage" />
        <dc:title />
      </cc:Work>
    </rdf:RDF>
  </metadata>
  <sodipodi:namedview
     pagecolor="#ffffff"
     bordercolor="#666666"
     borderopacity="1"
     objecttolerance="10"
     gridtolerance="10"
     guidetolerance="10"
     inkscape:pageopacity="0"
     inkscape:pageshadow="2"
     inkscape:window-width="1600"
     inkscape:window-height="1178"
     id="namedview3208"
     showgrid="false"
     units="cm"
     inkscape:snap-bbox="true"
     inkscape:snap-page="false"
     inkscape:snap-global="true"
     fit-margin-top="0"
     fit-margin-left="0"
     fit-margin-right="0"
     fit-margin-bottom="0"
     inkscape:zoom="3.913332"
     inkscape:cx="144.7248"
     inkscape:cy="53.878844"
     inkscape:current-layer="svg2996"
     inkscape:window-x="1912"
     inkscape:window-y="-8"
     inkscape:window-maximized="1"
     inkscape:bbox-nodes="true"
     inkscape:object-nodes="true" />
  <defs
     id="defs2998" />
  <path
     inkscape:connector-curvature="0"
     id="path3030-1"
     d="m 159.06222,63.39346 -76.851503,34.15239 0.310159,0.700741 76.851484,-34.152395 z m -2.64214,4.88219 3.49221,-4.847732 -5.93904,-0.65479 c -0.21825,-0.02298 -0.40207,0.126371 -0.42504,0.344628 -0.023,0.206778 0.12633,0.390573 0.33313,0.425041 l 5.29575,0.574372 -0.2757,-0.597353 -3.10163,4.307823 c -0.12633,0.172312 -0.0919,0.413551 0.0804,0.539907 0.17232,0.12637 0.41355,0.08043 0.53991,-0.0919 z"
     style="fill:#0000ff;fill-opacity:1;fill-rule:nonzero;stroke:none" />
  <g
     style="stroke:#000000;stroke-width:0.33089152;stroke-miterlimit:4;stroke-dasharray:none"
     id="g3975"
     transform="matrix(1.5110691,0,0,1.5110691,-4.561166,-40.960104)">
    <path
       style="fill:#d40000;fill-opacity:1;fill-rule:evenodd;stroke:#000000;stroke-width:0.33089152;stroke-miterlimit:4;stroke-dasharray:none"
       d="m 50.392089,43.424648 1.429219,2.850842 1.429225,-2.850842 z"
       id="path3048-7"
       inkscape:connector-curvature="0" />
    <path
       style="fill:#d40000;fill-opacity:1;fill-rule:evenodd;stroke:#000000;stroke-width:0.33089152;stroke-miterlimit:4;stroke-dasharray:none"
       d="m 56.101371,43.424648 1.421621,2.850842 1.429225,-2.850842 z"
       id="path3052-4"
       inkscape:connector-curvature="0" />
    <path
       style="fill:#d40000;fill-opacity:1;fill-rule:evenodd;stroke:#000000;stroke-width:0.33089152;stroke-miterlimit:4;stroke-dasharray:none"
       d="m 61.803056,43.424648 1.42162,2.850842 1.429225,-2.850842 z"
       id="path3056-0"
       inkscape:connector-curvature="0" />
    <path
       style="fill:#d40000;fill-opacity:1;fill-rule:evenodd;stroke:#000000;stroke-width:0.33089152;stroke-miterlimit:4;stroke-dasharray:none"
       d="m 67.504746,43.424648 1.421621,2.850842 1.429218,-2.850842 z"
       id="path3060-9"
       inkscape:connector-curvature="0" />
    <path
       style="fill:#d40000;fill-opacity:1;fill-rule:evenodd;stroke:#000000;stroke-width:0.33089152;stroke-miterlimit:4;stroke-dasharray:none"
       d="m 73.20643,43.424648 1.421614,2.850842 1.429225,-2.850842 z"
       id="path3064-4"
       inkscape:connector-curvature="0" />
    <path
       style="fill:#d40000;fill-opacity:1;fill-rule:evenodd;stroke:#000000;stroke-width:0.33089152;stroke-miterlimit:4;stroke-dasharray:none"
       d="m 78.908108,43.424648 1.42162,2.850842 1.429225,-2.850842 z"
       id="path3068-8"
       inkscape:connector-curvature="0" />
    <path
       style="fill:#d40000;fill-opacity:1;fill-rule:evenodd;stroke:#000000;stroke-width:0.33089152;stroke-miterlimit:4;stroke-dasharray:none"
       d="m 84.609799,43.424648 1.42162,2.850842 1.429219,-2.850842 z"
       id="path3072-8"
       inkscape:connector-curvature="0" />
    <path
       style="fill:#d40000;fill-opacity:1;fill-rule:evenodd;stroke:#000000;stroke-width:0.33089152;stroke-miterlimit:4;stroke-dasharray:none"
       d="m 90.311483,43.424648 1.42162,2.850842 1.429219,-2.850842 z"
       id="path3076-2"
       inkscape:connector-curvature="0" />
    <path
       style="fill:#d40000;fill-opacity:1;fill-rule:evenodd;stroke:#000000;stroke-width:0.33089152;stroke-miterlimit:4;stroke-dasharray:none"
       d="m 96.013161,43.424648 1.429225,2.850842 1.42162,-2.850842 z"
       id="path3080-4"
       inkscape:connector-curvature="0" />
    <path
       style="fill:#d40000;fill-opacity:1;fill-rule:evenodd;stroke:#000000;stroke-width:0.33089152;stroke-miterlimit:4;stroke-dasharray:none"
       d="m 101.71484,43.424648 1.42923,2.850842 1.42162,-2.850842 z"
       id="path3084-5"
       inkscape:connector-curvature="0" />
    <path
       style="fill:#d40000;fill-opacity:1;fill-rule:evenodd;stroke:#000000;stroke-width:0.33089152;stroke-miterlimit:4;stroke-dasharray:none"
       d="m 107.41653,43.424648 1.42922,2.850842 1.42162,-2.850842 z"
       id="path3088-5"
       inkscape:connector-curvature="0" />
    <path
       style="fill:#d40000;fill-opacity:1;fill-rule:evenodd;stroke:#000000;stroke-width:0.33089152;stroke-miterlimit:4;stroke-dasharray:none"
       d="m 113.11822,43.424648 1.42922,2.850842 1.42162,-2.850842 z"
       id="path3092-1"
       inkscape:connector-curvature="0" />
    <path
       style="fill:#d40000;fill-opacity:1;fill-rule:evenodd;stroke:#000000;stroke-width:0.33089152;stroke-miterlimit:4;stroke-dasharray:none"
       d="m 118.8199,43.432253 1.42922,2.843237 1.42922,-2.843237 z"
       id="path3096-7"
       inkscape:connector-curvature="0" />
    <path
       style="fill:#d40000;fill-opacity:1;fill-rule:evenodd;stroke:#000000;stroke-width:0.33089152;stroke-miterlimit:4;stroke-dasharray:none"
       d="m 124.52158,43.432253 1.42923,2.843237 1.42922,-2.843237 z"
       id="path3100-1"
       inkscape:connector-curvature="0" />
    <path
       style="fill:#d40000;fill-opacity:1;fill-rule:evenodd;stroke:#000000;stroke-width:0.33089152;stroke-miterlimit:4;stroke-dasharray:none"
       d="m 130.22327,43.432253 1.42922,2.843237 1.42923,-2.843237 z"
       id="path3104-1"
       inkscape:connector-curvature="0" />
    <path
       style="fill:#d40000;fill-opacity:1;fill-rule:evenodd;stroke:#000000;stroke-width:0.33089152;stroke-miterlimit:4;stroke-dasharray:none"
       d="m 135.92496,43.432253 1.42921,2.843237 1.42922,-2.843237 z"
       id="path3108-5"
       inkscape:connector-curvature="0" />
    <path
       style="fill:#d40000;fill-opacity:1;fill-rule:evenodd;stroke:#000000;stroke-width:0.33089152;stroke-miterlimit:4;stroke-dasharray:none"
       d="m 147.34353,40.573805 1.41401,2.858448 1.42923,-2.858448 z"
       id="path3112-2"
       inkscape:connector-curvature="0" />
    <path
       style="fill:#d40000;fill-opacity:1;fill-rule:evenodd;stroke:#000000;stroke-width:0.33089152;stroke-miterlimit:4;stroke-dasharray:none"
       d="m 153.04521,40.573805 1.41402,2.858448 1.42922,-2.858448 z"
       id="path3116-7"
       inkscape:connector-curvature="0" />
    <path
       style="fill:#d40000;fill-opacity:1;fill-rule:evenodd;stroke:#000000;stroke-width:0.33089152;stroke-miterlimit:4;stroke-dasharray:none"
       d="m 158.7469,40.573805 1.41401,2.858448 1.42923,-2.858448 z"
       id="path3120-6"
       inkscape:connector-curvature="0" />
    <path
       style="fill:#d40000;fill-opacity:1;fill-rule:evenodd;stroke:#000000;stroke-width:0.33089152;stroke-miterlimit:4;stroke-dasharray:none"
       d="m 164.44858,40.573805 1.41402,2.858448 1.42922,-2.858448 z"
       id="path3124-1"
       inkscape:connector-curvature="0" />
    <path
       style="fill:#d40000;fill-opacity:1;fill-rule:evenodd;stroke:#000000;stroke-width:0.33089152;stroke-miterlimit:4;stroke-dasharray:none"
       d="m 170.15026,40.573805 1.41403,2.858448 1.42921,-2.858448 z"
       id="path3128-4"
       inkscape:connector-curvature="0" />
    <path
       style="fill:#d40000;fill-opacity:1;fill-rule:evenodd;stroke:#000000;stroke-width:0.33089152;stroke-miterlimit:4;stroke-dasharray:none"
       d="m 175.85195,40.573805 1.41402,2.858448 1.42923,-2.858448 z"
       id="path3132-2"
       inkscape:connector-curvature="0" />
    <path
       style="fill:#d40000;fill-opacity:1;fill-rule:evenodd;stroke:#000000;stroke-width:0.33089152;stroke-miterlimit:4;stroke-dasharray:none"
       d="m 181.55363,40.573805 1.41402,2.858448 1.42922,-2.858448 z"
       id="path3136-3"
       inkscape:connector-curvature="0" />
    <path
       style="fill:#d40000;fill-opacity:1;fill-rule:evenodd;stroke:#000000;stroke-width:0.33089152;stroke-miterlimit:4;stroke-dasharray:none"
       d="m 141.64184,42.291913 2.17424,2.32629 0.56257,-3.14733 z"
       id="path3140-2"
       inkscape:connector-curvature="0" />
    <path
       style="fill:#d40000;fill-opacity:1;fill-rule:evenodd;stroke:#000000;stroke-width:0.33089152;stroke-miterlimit:4;stroke-dasharray:none"
       d="m 190.28101,42.641616 -2.17424,2.326289 -0.56256,-3.147329 z"
       id="path3144-2"
       inkscape:connector-curvature="0" />
    <path
       style="fill:#d40000;fill-opacity:1;fill-rule:evenodd;stroke:#000000;stroke-width:0.33089152;stroke-miterlimit:4;stroke-dasharray:none"
       d="m 192.95701,43.432253 1.42922,2.843237 1.41401,-2.843237 z"
       id="path3148-1"
       inkscape:connector-curvature="0" />
    <path
       style="fill:#d40000;fill-opacity:1;fill-rule:evenodd;stroke:#000000;stroke-width:0.33089152;stroke-miterlimit:4;stroke-dasharray:none"
       d="m 198.65868,43.432253 1.42923,2.843237 1.41402,-2.843237 z"
       id="path3152-6"
       inkscape:connector-curvature="0" />
    <path
       style="fill:#d40000;fill-opacity:1;fill-rule:evenodd;stroke:#000000;stroke-width:0.33089152;stroke-miterlimit:4;stroke-dasharray:none"
       d="m 44.690405,43.424648 1.429218,2.850842 1.421621,-2.850842 z"
       id="path3156-8"
       inkscape:connector-curvature="0" />
    <path
       style="fill:#d40000;fill-opacity:1;fill-rule:evenodd;stroke:#000000;stroke-width:0.33089152;stroke-miterlimit:4;stroke-dasharray:none"
       d="m 38.98872,43.424648 1.429222,2.850842 1.421618,-2.850842 z"
       id="path3160-5"
       inkscape:connector-curvature="0" />
  </g>
  <path
     inkscape:connector-curvature="0"
     id="path3002-7"
     d="m 289.00903,98.258085 -76.8515,-34.163889 0.29868,-0.68925 76.85149,34.140904 z m -73.91069,-29.982437 -3.49222,-4.84773 5.95054,-0.643303 c 0.20678,-0.023 0.39058,0.114872 0.41356,0.344628 0.023,0.206776 -0.11484,0.390573 -0.34462,0.413554 l -5.28428,0.574371 0.27571,-0.597352 3.10164,4.31931 c 0.13781,0.160825 0.0919,0.413553 -0.0689,0.52842 -0.1838,0.137854 -0.41354,0.0919 -0.55138,-0.0919 z"
     style="fill:#0000ff;fill-opacity:1;fill-rule:nonzero;stroke:none" />
  <path
     inkscape:connector-curvature="0"
     id="path3004-6"
     d="m 314.16671,63.473871 -76.85151,-34.140908 0.29867,-0.712225 76.85152,34.163877 z m -2.64214,-4.893684 3.49221,4.847731 -5.95055,0.666278 c -0.20676,0.023 -0.39058,-0.137856 -0.41353,-0.344629 -0.023,-0.20677 0.11484,-0.390573 0.34461,-0.413548 l 5.28425,-0.597351 -0.27569,0.620324 -3.10163,-4.319306 c -0.13782,-0.183796 -0.0919,-0.413553 0.069,-0.528424 0.18379,-0.137855 0.41357,-0.0919 0.55141,0.06892 z"
     style="fill:#0000ff;fill-opacity:1;fill-rule:nonzero;stroke:none" />
  <path
     inkscape:connector-curvature="0"
     id="path3006-1"
     d="m 237.3152,28.620738 -90.4757,40.206317 0.29868,0.71222 90.47569,-40.206312 z"
     style="fill:#0000ff;fill-opacity:1;fill-rule:nonzero;stroke:none" />
  <path
     inkscape:connector-curvature="0"
     id="path3022-8"
     d="m 133.68629,28.908137 -12.80859,76.464213 0.75818,0.12582 12.7971,-76.464213 z m -14.66956,71.705933 2.1137,5.57038 3.82535,-4.57526 c 0.13784,-0.16014 0.11487,-0.41179 -0.0574,-0.53759 -0.16081,-0.13728 -0.40205,-0.11439 -0.52841,0.0457 l -3.40032,4.072 0.6433,0.11438 -1.88394,-4.95272 c -0.0804,-0.19446 -0.29868,-0.29739 -0.49396,-0.22878 -0.1953,0.08 -0.29869,0.2974 -0.21827,0.49187 z"
     style="fill:#ff0000;fill-opacity:1;fill-rule:nonzero;stroke:none" />
  <path
     inkscape:connector-curvature="0"
     id="path3024-9"
     d="m 220.08392,67.609377 -86.17936,-38.276414 0.32164,-0.712225 86.15639,38.299389 z"
     style="fill:#0000ff;fill-opacity:1;fill-rule:nonzero;stroke:none" />
  <path
     inkscape:connector-curvature="0"
     id="path3026-2"
     d="m 289.3077,98.258085 51.21136,-22.768271 -0.32164,-0.68925 -51.18839,22.745286 z"
     style="fill:#0000ff;fill-opacity:1;fill-rule:nonzero;stroke:none" />
  <path
     inkscape:connector-curvature="0"
     id="path3028-7"
     d="M 4.968644,63.08329 82.520876,97.54585 82.210717,98.246591 4.6584762,63.784033 z"
     style="fill:#0000ff;fill-opacity:1;fill-rule:nonzero;stroke:none" />
  <path
     inkscape:connector-curvature="0"
     id="path3032-9"
     d="m 340.70287,75.283042 -35.54239,-15.806828 0.32165,-0.68925 35.54238,15.783851 z"
     style="fill:#0000ff;fill-opacity:1;fill-rule:nonzero;stroke:none" />
  <path
     inkscape:connector-curvature="0"
     id="path3034-5"
     d="M 29.816146,74.961389 4.6584762,63.784033 4.968644,63.08329 30.126307,74.260649 z m -2.642133,-4.893686 3.492207,4.847738 -5.939042,0.66628 c -0.218265,0.02297 -0.402066,-0.137855 -0.425039,-0.344635 -0.023,-0.206771 0.126355,-0.402062 0.333134,-0.425041 l 5.295751,-0.585864 -0.275703,0.608843 -3.101632,-4.319311 c -0.126356,-0.160823 -0.0919,-0.402054 0.08041,-0.528418 0.172309,-0.12637 0.41355,-0.08042 0.539911,0.0804 z"
     style="fill:#0000ff;fill-opacity:1;fill-rule:nonzero;stroke:none" />
  <path
     inkscape:connector-curvature="0"
     id="path3036-4"
     d="m 134.44446,28.961791 0,76.468609 -0.76966,0 0,-76.468609 z m 2.63064,72.225899 -3.02121,4.98491 -3.00973,-4.98492 c -0.10338,-0.17723 -0.0459,-0.39879 0.13784,-0.49848 0.1838,-0.11078 0.42505,-0.0443 0.52843,0.13293 l 2.6766,4.43103 -0.6548,0 2.6766,-4.43103 c 0.10338,-0.17726 0.34462,-0.24372 0.52843,-0.13293 0.17231,0.0997 0.24123,0.32125 0.13784,0.49848 z"
     style="fill:#ff0000;fill-opacity:1;fill-rule:nonzero;stroke:none" />
  <path
     inkscape:connector-curvature="0"
     id="path3038-3"
     d="m 134.43298,28.908137 12.80858,76.464213 -0.75818,0.12582 -12.79709,-76.464213 z m 14.66956,71.705933 -2.1137,5.57038 -3.82535,-4.57526 c -0.13785,-0.16014 -0.11487,-0.41179 0.0459,-0.53759 0.17231,-0.13728 0.41354,-0.11439 0.53991,0.0457 l 3.40031,4.072 -0.64331,0.11438 1.88396,-4.95272 c 0.0689,-0.19446 0.29866,-0.29739 0.49395,-0.22878 0.1953,0.08 0.29868,0.2974 0.21827,0.49187 z"
     style="fill:#ff0000;fill-opacity:1;fill-rule:nonzero;stroke:none" />
  <path
     inkscape:connector-curvature="0"
     id="path3040-1"
     d="m 340.84521,28.96536 0,68.936607 4.31447,0 0,-68.936607 -4.31447,0 z"
     style="fill:#ffff00;fill-opacity:1;fill-rule:evenodd;stroke:#000000;stroke-width:0.99999958" />
  <path
     inkscape:connector-curvature="0"
     id="path3044-2"
     d="m 0.50000004,28.96536 0,68.936607 12.93494496,0 0,-68.936607 -12.93494496,0 z"
     style="fill:#00b0f0;fill-opacity:1;fill-rule:evenodd;stroke:#000000;stroke-width:1.00000012" />
  <path
     inkscape:connector-curvature="0"
     id="path3164-3"
     d="m 52.205319,16.306117 149.843191,0 14.12966,-4.572035 59.78104,0 14.2675,4.847736 12.40653,0 0,8.339938 -15.34735,0 -13.34849,-4.434186 -55.8523,0.137855 -12.40653,4.043611 -153.197549,0 -0.275702,-8.362916 z"
     style="fill:#d40000;fill-opacity:1;fill-rule:evenodd;stroke:#000000;stroke-width:0.50000006;stroke-miterlimit:4;stroke-dasharray:none" />
  <path
     inkscape:connector-curvature="0"
     id="path3168-3"
     d="m 38.98132,28.96536 13.223999,-12.659243 149.843191,0 14.12966,-4.572035 59.78104,0 14.2675,4.847736 12.40653,0 10.16194,12.383542 28.05003,0 0,-2.597875 -26.84128,0.03341 -10.19783,-12.400662 -13.31312,0 -13.98234,-4.9542288 -60.58517,0 -14.01475,4.8477378 -150.509485,-0.275698 -13.248897,12.760042 -24.717392,-0.01061 -10e-7,2.597875 c 9.313688,-0.09436 16.231926,-10e-7 25.546375,0 z"
     style="fill:#e6e6e6;fill-opacity:1;fill-rule:evenodd;stroke:#000000;stroke-width:1.00000012;stroke-miterlimit:4;stroke-dasharray:none"
     sodipodi:nodetypes="ccccccccccccccccccccc" />
  <path
     inkscape:connector-curvature="0"
     id="path3172-4"
     d="m 216.57602,24.669033 0,4.296327 60.30948,0 0,-4.296327 -60.30948,0 z"
     style="fill:none;stroke:none" />
  <path
     inkscape:connector-curvature="0"
     id="path3176-1"
     d="m 229.55731,119.28423 9.34809,0 -0.48587,0.39504 0,-6.32038 15.54778,0 0,6.32038 -0.48586,-0.39504 9.34808,0 -16.6361,6.76281 -16.63612,-6.76281 z m 16.86932,5.95695 -0.447,0 14.57604,-5.92534 0.21379,0.75845 -7.7739,0 0,-6.32036 0.48589,0.39502 -14.57605,0 0.48588,-0.39502 0,6.32036 -7.77388,0 0.2332,-0.75845 14.57603,5.92534 z"
     style="fill:#000000;fill-opacity:1;fill-rule:nonzero;stroke:none" />
  <text
     id="text3178-1"
     style="font-size:10.00096321px;font-style:normal;font-variant:normal;font-weight:normal;font-stretch:normal;text-align:start;text-anchor:start;fill:#000000;font-family:Times New Roman;-inkscape-font-specification:Times New Roman"
     y="125.94557"
     x="268.57047"
     xml:space="preserve">Vacuum</text>
  <text
     id="text3184-3"
     style="font-size:10.00096321px;font-style:normal;font-weight:normal;text-align:start;text-anchor:start;fill:#000000;font-family:Times New Roman;-inkscape-font-specification:Times New Roman"
     y="93.673325"
     x="148.49988"
     xml:space="preserve">Transparent side</text>
  <text
     id="text3190-8"
     style="font-size:10.00096321px;font-style:normal;font-variant:normal;font-weight:normal;font-stretch:normal;text-align:start;text-anchor:start;fill:#000000;font-family:Times New Roman;-inkscape-font-specification:Times New Roman"
     y="6.9440279"
     x="51.085255"
     xml:space="preserve">PDMS microtextured film</text>
  <text
     id="text3198-7"
     style="font-size:10.00096321px;font-style:normal;font-variant:normal;font-weight:normal;font-stretch:normal;text-align:start;text-anchor:start;fill:#000000;font-family:Times New Roman;-inkscape-font-specification:Times New Roman"
     y="6.9440279"
     x="173.16742"
     xml:space="preserve">Cover membrane</text>
  <text
     id="text3204-4"
     style="font-size:10.00096321px;font-style:normal;font-variant:normal;font-weight:normal;font-stretch:normal;text-align:start;text-anchor:start;fill:#000000;font-family:Times New Roman;-inkscape-font-specification:Times New Roman"
     y="6.9440279"
     x="298.02606"
     xml:space="preserve">Mesh filter</text>
  <path
     style="fill:none;stroke:#000000;stroke-width:0.75;stroke-linecap:round;stroke-linejoin:miter;stroke-miterlimit:4;stroke-opacity:1;stroke-dasharray:none"
     d="M 295.65909,2.8984387 261.00678,26.078815"
     id="path5683-2"
     inkscape:connector-curvature="0" />
  <path
     inkscape:connector-curvature="0"
     id="path5685-7"
     d="m 244.42484,4.5609638 13.73169,4.5311946"
     style="fill:none;stroke:#000000;stroke-width:0.75;stroke-linecap:round;stroke-linejoin:miter;stroke-miterlimit:4;stroke-opacity:1;stroke-dasharray:none" />
  <path
     style="fill:none;stroke:#000000;stroke-width:0.75;stroke-linecap:round;stroke-linejoin:miter;stroke-miterlimit:4;stroke-opacity:1;stroke-dasharray:none"
     d="M 110.83474,8.6315237 134.03558,22.898336"
     id="path5687-7"
     inkscape:connector-curvature="0" />
  <path
     inkscape:connector-curvature="0"
     id="path5689-9"
     d="M 110.83474,8.6315237 125.65069,22.898336"
     style="fill:none;stroke:#000000;stroke-width:0.75;stroke-linecap:round;stroke-linejoin:miter;stroke-miterlimit:4;stroke-opacity:1;stroke-dasharray:none" />
  <path
     style="fill:none;stroke:#000000;stroke-width:0.75;stroke-linecap:round;stroke-linejoin:miter;stroke-miterlimit:4;stroke-opacity:1;stroke-dasharray:none"
     d="m 110.83474,8.6315237 6.1419,14.2668123"
     id="path5691-3"
     inkscape:connector-curvature="0" />
  <path
     style="fill:none;stroke:#000000;stroke-width:0.50000006;stroke-linecap:round;stroke-linejoin:miter;stroke-miterlimit:4;stroke-opacity:1;stroke-dasharray:none"
     d="m 226.21412,24.609089 4.24231,4.242317"
     id="path3278-1"
     inkscape:connector-curvature="0" />
  <path
     inkscape:connector-curvature="0"
     id="path4048-9"
     d="m 229.41442,24.609089 4.24231,4.242317"
     style="fill:none;stroke:#000000;stroke-width:0.50000006;stroke-linecap:round;stroke-linejoin:miter;stroke-miterlimit:4;stroke-opacity:1;stroke-dasharray:none" />
  <path
     style="fill:none;stroke:#000000;stroke-width:0.50000006;stroke-linecap:round;stroke-linejoin:miter;stroke-miterlimit:4;stroke-opacity:1;stroke-dasharray:none"
     d="m 227.77136,28.902518 4.21677,-4.216761"
     id="path4052-8"
     inkscape:connector-curvature="0" />
  <path
     inkscape:connector-curvature="0"
     id="path4054-6"
     d="m 230.97167,28.902518 4.21676,-4.216761"
     style="fill:none;stroke:#000000;stroke-width:0.50000006;stroke-linecap:round;stroke-linejoin:miter;stroke-miterlimit:4;stroke-opacity:1;stroke-dasharray:none" />
  <path
     inkscape:connector-curvature="0"
     id="path4056-5"
     d="m 221.37076,28.902518 4.21675,-4.216761"
     style="fill:none;stroke:#000000;stroke-width:0.50000006;stroke-linecap:round;stroke-linejoin:miter;stroke-miterlimit:4;stroke-opacity:1;stroke-dasharray:none" />
  <path
     style="fill:none;stroke:#000000;stroke-width:0.50000006;stroke-linecap:round;stroke-linejoin:miter;stroke-miterlimit:4;stroke-opacity:1;stroke-dasharray:none"
     d="m 224.57107,28.902518 4.21674,-4.216761"
     id="path4058-0"
     inkscape:connector-curvature="0" />
  <path
     style="fill:none;stroke:#000000;stroke-width:0.50000006;stroke-linecap:round;stroke-linejoin:miter;stroke-miterlimit:4;stroke-opacity:1;stroke-dasharray:none"
     d="m 216.05439,27.818264 3.1325,-3.132507"
     id="path4060-2"
     inkscape:connector-curvature="0" />
  <path
     inkscape:connector-curvature="0"
     id="path4064-8"
     d="m 234.17198,28.902518 4.21676,-4.216761"
     style="fill:none;stroke:#000000;stroke-width:0.50000006;stroke-linecap:round;stroke-linejoin:miter;stroke-miterlimit:4;stroke-opacity:1;stroke-dasharray:none" />
  <path
     style="fill:none;stroke:#000000;stroke-width:0.50000006;stroke-linecap:round;stroke-linejoin:miter;stroke-miterlimit:4;stroke-opacity:1;stroke-dasharray:none"
     d="m 237.37229,28.902518 4.21676,-4.216761"
     id="path4066-6"
     inkscape:connector-curvature="0" />
  <path
     inkscape:connector-curvature="0"
     id="path4068-0"
     d="m 240.5726,28.902518 4.21675,-4.216761"
     style="fill:none;stroke:#000000;stroke-width:0.50000006;stroke-linecap:round;stroke-linejoin:miter;stroke-miterlimit:4;stroke-opacity:1;stroke-dasharray:none" />
  <path
     style="fill:none;stroke:#000000;stroke-width:0.50000006;stroke-linecap:round;stroke-linejoin:miter;stroke-miterlimit:4;stroke-opacity:1;stroke-dasharray:none"
     d="m 243.7729,28.902518 4.21677,-4.216761"
     id="path4070-2"
     inkscape:connector-curvature="0" />
  <path
     style="fill:none;stroke:#000000;stroke-width:0.50000006;stroke-linecap:round;stroke-linejoin:miter;stroke-miterlimit:4;stroke-opacity:1;stroke-dasharray:none"
     d="m 246.97322,28.902518 4.21675,-4.216761"
     id="path4072-4"
     inkscape:connector-curvature="0" />
  <path
     inkscape:connector-curvature="0"
     id="path4074-8"
     d="m 250.17352,28.902518 4.21677,-4.216761"
     style="fill:none;stroke:#000000;stroke-width:0.50000006;stroke-linecap:round;stroke-linejoin:miter;stroke-miterlimit:4;stroke-opacity:1;stroke-dasharray:none" />
  <path
     style="fill:none;stroke:#000000;stroke-width:0.50000006;stroke-linecap:round;stroke-linejoin:miter;stroke-miterlimit:4;stroke-opacity:1;stroke-dasharray:none"
     d="m 253.37383,28.902518 4.21676,-4.216761"
     id="path4076-6"
     inkscape:connector-curvature="0" />
  <path
     inkscape:connector-curvature="0"
     id="path4078-5"
     d="m 256.57414,28.902518 4.21676,-4.216761"
     style="fill:none;stroke:#000000;stroke-width:0.50000006;stroke-linecap:round;stroke-linejoin:miter;stroke-miterlimit:4;stroke-opacity:1;stroke-dasharray:none" />
  <path
     inkscape:connector-curvature="0"
     id="path4080-0"
     d="m 259.77444,28.902518 4.21677,-4.216761"
     style="fill:none;stroke:#000000;stroke-width:0.50000006;stroke-linecap:round;stroke-linejoin:miter;stroke-miterlimit:4;stroke-opacity:1;stroke-dasharray:none" />
  <path
     style="fill:none;stroke:#000000;stroke-width:0.50000006;stroke-linecap:round;stroke-linejoin:miter;stroke-miterlimit:4;stroke-opacity:1;stroke-dasharray:none"
     d="m 262.97476,28.902518 4.21675,-4.216761"
     id="path4082-9"
     inkscape:connector-curvature="0" />
  <path
     inkscape:connector-curvature="0"
     id="path4084-0"
     d="m 266.17506,28.902518 4.21677,-4.216761"
     style="fill:none;stroke:#000000;stroke-width:0.50000006;stroke-linecap:round;stroke-linejoin:miter;stroke-miterlimit:4;stroke-opacity:1;stroke-dasharray:none" />
  <path
     style="fill:none;stroke:#000000;stroke-width:0.50000006;stroke-linecap:round;stroke-linejoin:miter;stroke-miterlimit:4;stroke-opacity:1;stroke-dasharray:none"
     d="m 269.37538,28.902518 4.21675,-4.216761"
     id="path4086-0"
     inkscape:connector-curvature="0" />
  <path
     style="fill:none;stroke:#000000;stroke-width:0.50000006;stroke-linecap:round;stroke-linejoin:miter;stroke-miterlimit:4;stroke-opacity:1;stroke-dasharray:none"
     d="m 223.01381,24.609089 4.24231,4.242317"
     id="path4094-6"
     inkscape:connector-curvature="0" />
  <path
     style="fill:none;stroke:#000000;stroke-width:0.50000006;stroke-linecap:round;stroke-linejoin:miter;stroke-miterlimit:4;stroke-opacity:1;stroke-dasharray:none"
     d="m 215.94281,27.139016 1.71238,1.71239"
     id="path4096-1"
     inkscape:connector-curvature="0" />
  <path
     inkscape:connector-curvature="0"
     id="path4098-3"
     d="m 216.6132,24.609089 4.24231,4.242317"
     style="fill:none;stroke:#000000;stroke-width:0.50000006;stroke-linecap:round;stroke-linejoin:miter;stroke-miterlimit:4;stroke-opacity:1;stroke-dasharray:none" />
  <path
     inkscape:connector-curvature="0"
     id="path4100-8"
     d="m 232.61474,24.609089 4.24231,4.242317"
     style="fill:none;stroke:#000000;stroke-width:0.50000006;stroke-linecap:round;stroke-linejoin:miter;stroke-miterlimit:4;stroke-opacity:1;stroke-dasharray:none" />
  <path
     style="fill:none;stroke:#000000;stroke-width:0.50000006;stroke-linecap:round;stroke-linejoin:miter;stroke-miterlimit:4;stroke-opacity:1;stroke-dasharray:none"
     d="m 235.81504,24.609089 4.24231,4.242317"
     id="path4102-9"
     inkscape:connector-curvature="0" />
  <path
     style="fill:none;stroke:#000000;stroke-width:0.50000006;stroke-linecap:round;stroke-linejoin:miter;stroke-miterlimit:4;stroke-opacity:1;stroke-dasharray:none"
     d="m 239.01535,24.609089 4.24231,4.242317"
     id="path4104-3"
     inkscape:connector-curvature="0" />
  <path
     inkscape:connector-curvature="0"
     id="path4106-4"
     d="m 242.21566,24.609089 4.24231,4.242317"
     style="fill:none;stroke:#000000;stroke-width:0.50000006;stroke-linecap:round;stroke-linejoin:miter;stroke-miterlimit:4;stroke-opacity:1;stroke-dasharray:none" />
  <path
     inkscape:connector-curvature="0"
     id="path4108-4"
     d="m 245.41595,24.609089 4.24233,4.242317"
     style="fill:none;stroke:#000000;stroke-width:0.50000006;stroke-linecap:round;stroke-linejoin:miter;stroke-miterlimit:4;stroke-opacity:1;stroke-dasharray:none" />
  <path
     style="fill:none;stroke:#000000;stroke-width:0.50000006;stroke-linecap:round;stroke-linejoin:miter;stroke-miterlimit:4;stroke-opacity:1;stroke-dasharray:none"
     d="m 248.61626,24.609089 4.24233,4.242317"
     id="path4110-6"
     inkscape:connector-curvature="0" />
  <path
     style="fill:none;stroke:#000000;stroke-width:0.50000006;stroke-linecap:round;stroke-linejoin:miter;stroke-miterlimit:4;stroke-opacity:1;stroke-dasharray:none"
     d="m 251.81657,24.609089 4.24233,4.242317"
     id="path4112-0"
     inkscape:connector-curvature="0" />
  <path
     inkscape:connector-curvature="0"
     id="path4114-6"
     d="m 255.01687,24.609089 4.24233,4.242317"
     style="fill:none;stroke:#000000;stroke-width:0.50000006;stroke-linecap:round;stroke-linejoin:miter;stroke-miterlimit:4;stroke-opacity:1;stroke-dasharray:none" />
  <path
     inkscape:connector-curvature="0"
     id="path4116-6"
     d="m 258.21719,24.609089 4.24232,4.242317"
     style="fill:none;stroke:#000000;stroke-width:0.50000006;stroke-linecap:round;stroke-linejoin:miter;stroke-miterlimit:4;stroke-opacity:1;stroke-dasharray:none" />
  <path
     style="fill:none;stroke:#000000;stroke-width:0.50000006;stroke-linecap:round;stroke-linejoin:miter;stroke-miterlimit:4;stroke-opacity:1;stroke-dasharray:none"
     d="m 261.41749,24.609089 4.24233,4.242317"
     id="path4118-1"
     inkscape:connector-curvature="0" />
  <path
     style="fill:none;stroke:#000000;stroke-width:0.50000006;stroke-linecap:round;stroke-linejoin:miter;stroke-miterlimit:4;stroke-opacity:1;stroke-dasharray:none"
     d="m 264.6178,24.609089 4.24233,4.242317"
     id="path4120-8"
     inkscape:connector-curvature="0" />
  <path
     inkscape:connector-curvature="0"
     id="path4122-4"
     d="m 267.81811,24.609089 4.24233,4.242317"
     style="fill:none;stroke:#000000;stroke-width:0.50000006;stroke-linecap:round;stroke-linejoin:miter;stroke-miterlimit:4;stroke-opacity:1;stroke-dasharray:none" />
  <path
     inkscape:connector-curvature="0"
     id="path4124-9"
     d="m 271.01842,24.609089 4.24232,4.242317"
     style="fill:none;stroke:#000000;stroke-width:0.50000006;stroke-linecap:round;stroke-linejoin:miter;stroke-miterlimit:4;stroke-opacity:1;stroke-dasharray:none" />
  <path
     inkscape:connector-curvature="0"
     id="path4128-6"
     d="m 219.8135,24.609089 4.24231,4.242317"
     style="fill:none;stroke:#000000;stroke-width:0.50000006;stroke-linecap:round;stroke-linejoin:miter;stroke-miterlimit:4;stroke-opacity:1;stroke-dasharray:none" />
  <path
     style="fill:none;stroke:#000000;stroke-width:0.50000006;stroke-linecap:round;stroke-linejoin:miter;stroke-miterlimit:4;stroke-opacity:1;stroke-dasharray:none"
     d="m 218.17045,28.902518 4.21675,-4.216761"
     id="path4130-3"
     inkscape:connector-curvature="0" />
  <path
     inkscape:connector-curvature="0"
     id="path4132-7"
     d="m 272.57568,28.902518 3.62042,-3.62042"
     style="fill:none;stroke:#000000;stroke-width:0.50000006;stroke-linecap:round;stroke-linejoin:miter;stroke-miterlimit:4;stroke-opacity:1;stroke-dasharray:none" />
  <path
     style="fill:none;stroke:#000000;stroke-width:0.50000006;stroke-linecap:round;stroke-linejoin:miter;stroke-miterlimit:4;stroke-opacity:1;stroke-dasharray:none"
     d="m 274.21873,24.609089 2.1461,2.146091"
     id="path4134-8"
     inkscape:connector-curvature="0" />
  <flowRoot
     xml:space="preserve"
     id="flowRoot3156-8"
     style="font-size:12.5px;font-style:normal;font-variant:normal;font-weight:normal;font-stretch:normal;text-align:center;line-height:125%;letter-spacing:0px;word-spacing:0px;writing-mode:lr-tb;text-anchor:middle;fill:#000000;fill-opacity:1;stroke:none;font-family:Times New Roman;-inkscape-font-specification:Times New Roman"
     transform="matrix(0.80007698,0,0,0.80007698,-45.103173,44.632263)"><flowRegion
       id="flowRegion3158-2"><rect
         id="rect3160-9"
         width="70.017067"
         height="56.218079"
         x="78.705315"
         y="71.605507"
         style="font-size:12.5px;text-align:center;text-anchor:middle;font-family:Times New Roman;-inkscape-font-specification:Times New Roman" /></flowRegion><flowPara
       id="flowPara3164-1"
       style="font-size:12.5px;text-align:center;line-height:100%;text-anchor:middle;font-family:Times New Roman;-inkscape-font-specification:Times New Roman">Acrylic waveguide</flowPara></flowRoot>  <flowRoot
     transform="matrix(0.80007698,0,0,0.80007698,24.938166,50.118732)"
     style="font-size:12.5px;font-style:normal;font-variant:normal;font-weight:normal;font-stretch:normal;text-align:center;line-height:125%;letter-spacing:0px;word-spacing:0px;writing-mode:lr-tb;text-anchor:middle;fill:#000000;fill-opacity:1;stroke:none;font-family:Times New Roman;-inkscape-font-specification:Times New Roman"
     id="flowRoot3308-3"
     xml:space="preserve"><flowRegion
       id="flowRegion3310-5"><rect
         style="font-size:12.5px;text-align:center;text-anchor:middle;font-family:Times New Roman;-inkscape-font-specification:Times New Roman"
         y="71.605507"
         x="78.705315"
         height="28.706099"
         width="121.1244"
         id="rect3312-9" /></flowRegion><flowPara
       style="font-size:12.5px;text-align:center;line-height:100%;text-anchor:middle;font-family:Times New Roman;-inkscape-font-specification:Times New Roman"
       id="flowPara3314-8">Scattered light captured by camera</flowPara></flowRoot>  <flowRoot
     xml:space="preserve"
     id="flowRoot3169-4"
     style="font-size:10px;font-style:normal;font-weight:normal;line-height:125%;letter-spacing:0px;word-spacing:0px;fill:#000000;fill-opacity:1;stroke:none;font-family:Sans"
     transform="matrix(0.80007698,0,0,0.80007698,0.0102719,-36.95818)"><flowRegion
       id="flowRegion3171-0"><rect
         id="rect3173-7"
         width="65.049026"
         height="68.662865"
         x="354.8786"
         y="88.19799"
         style="font-size:10px" /></flowRegion><flowPara
       id="flowPara3175-6"
       style="font-size:12.5px;text-align:end;line-height:100%;text-anchor:end;font-family:Times New Roman;-inkscape-font-specification:Times New Roman">Reflective</flowPara><flowPara
       style="font-size:12.5px;text-align:end;line-height:100%;text-anchor:end;font-family:Times New Roman;-inkscape-font-specification:Times New Roman"
       id="flowPara3179-3">side</flowPara><flowPara
       id="flowPara3177-6"
       style="font-size:12.5px;text-align:end;line-height:100%;text-anchor:end;font-family:Times New Roman;-inkscape-font-specification:Times New Roman" /></flowRoot>  <flowRoot
     transform="matrix(0.80007698,0,0,0.80007698,-265.83909,-36.95818)"
     style="font-size:10px;font-style:normal;font-weight:normal;line-height:125%;letter-spacing:0px;word-spacing:0px;fill:#000000;fill-opacity:1;stroke:none;font-family:Sans"
     id="flowRoot3183-1"
     xml:space="preserve"><flowRegion
       id="flowRegion3185-5"><rect
         style="font-size:10px"
         y="88.19799"
         x="354.8786"
         height="68.662865"
         width="65.049026"
         id="rect3187-4" /></flowRegion><flowPara
       style="font-size:12.5px;text-align:start;line-height:100%;text-anchor:start;font-family:Times New Roman;-inkscape-font-specification:Times New Roman"
       id="flowPara3193-2">Light</flowPara><flowPara
       style="font-size:12.5px;text-align:start;line-height:100%;text-anchor:start;font-family:Times New Roman;-inkscape-font-specification:Times New Roman"
       id="flowPara3200-0">source</flowPara></flowRoot>  <path
     style="opacity:1;color:#000000;fill:none;stroke:#000000;stroke-width:0.74999994000000003;stroke-linecap:round;stroke-linejoin:miter;stroke-miterlimit:4;stroke-dashoffset:0;stroke-opacity:1;marker:none;visibility:visible;display:inline;overflow:visible;enable-background:accumulate"
     d="m 215.95441,24.669033 60.22084,0 0,4.296328 -60.22084,0 z"
     id="rect4185" />
  <path
     style="opacity:1;color:#000000;fill:none;stroke:#000000;stroke-width:1;stroke-linecap:butt;stroke-linejoin:miter;stroke-miterlimit:4;stroke-dashoffset:0;stroke-opacity:1;marker:none;visibility:visible;display:inline;overflow:visible;enable-background:accumulate"
     d="m 13.434944,28.965361 327.410276,0 0,68.936607 -327.410276,0 z"
     id="rect4161" />
  <path
     inkscape:connector-curvature="0"
     id="path4219"
     d="m 224.54107,110.82542 c 14.3594,0 28.7188,0 43.0782,0 0,-27.28669 0,-54.573374 0,-81.86006 -14.3594,0 -28.7188,0 -43.0782,0 0,27.286686 0,54.57337 0,81.86006 z"
     style="fill:#ffffff;stroke:#000000;stroke-width:1.00000012;stroke-linecap:round;stroke-linejoin:miter" />
  <path
     style="fill:#2ca02c;fill-opacity:1;fill-rule:nonzero;stroke:#000000;stroke-width:1.00000012;stroke-linecap:round;stroke-linejoin:miter"
     d="m 224.54107,110.82542 c 14.3594,0 28.7188,0 43.0782,0 0,-25.846918 0,-51.693837 0,-77.540754 -14.3594,0 -28.7188,0 -43.0782,0 0,25.846917 0,51.693836 0,77.540754 z"
     id="path5555-9"
     inkscape:connector-curvature="0" />
  <path
     inkscape:connector-curvature="0"
     id="path3018-7"
     d="m 236.99355,33.284666 0,77.540754 18.17324,0 0,-77.540754 -18.17324,0 z"
     style="fill:#87de87;fill-opacity:1;fill-rule:evenodd;stroke:#000000;stroke-width:1.00000012;stroke-linecap:round;stroke-miterlimit:4;stroke-dasharray:none" />
  <g
     id="g4188"
     transform="matrix(0.83347139,0,0,0.83347139,-0.16962131,6.7143955e-7)">
    <path
       style="fill:none;stroke:none"
       d="m 269.36552,39.498188 0,93.907082 52.17057,0 0,-93.907082 -52.17057,0 z"
       id="path3014-3"
       inkscape:connector-curvature="0" />
    <path
       inkscape:connector-curvature="0"
       id="path3212-7"
       d="m 269.49777,43.355206 3.56951,-3.569518"
       style="fill:none;stroke:#000000;stroke-width:1.19980133px;stroke-linecap:butt;stroke-linejoin:miter;stroke-opacity:1" />
    <path
       style="fill:none;stroke:#000000;stroke-width:1.19980133px;stroke-linecap:butt;stroke-linejoin:miter;stroke-opacity:1"
       d="M 269.46226,51.070204 280.67114,39.861295"
       id="path3214-2"
       inkscape:connector-curvature="0" />
    <path
       inkscape:connector-curvature="0"
       id="path3216-6"
       d="M 269.44213,58.769799 284.54867,43.663231"
       style="fill:none;stroke:#000000;stroke-width:1.19980133px;stroke-linecap:butt;stroke-linejoin:miter;stroke-opacity:1" />
    <path
       style="fill:none;stroke:#000000;stroke-width:1.19980133px;stroke-linecap:butt;stroke-linejoin:miter;stroke-opacity:1"
       d="m 269.44213,66.449267 15.10654,-15.10657"
       id="path3218-0"
       inkscape:connector-curvature="0" />
    <path
       style="fill:none;stroke:#000000;stroke-width:1.19980133px;stroke-linecap:butt;stroke-linejoin:miter;stroke-opacity:1"
       d="M 269.44213,74.128733 284.54867,59.022165"
       id="path3222-1"
       inkscape:connector-curvature="0" />
    <path
       inkscape:connector-curvature="0"
       id="path3224-6"
       d="M 269.44213,81.808203 284.54867,66.701631"
       style="fill:none;stroke:#000000;stroke-width:1.19980133px;stroke-linecap:butt;stroke-linejoin:miter;stroke-opacity:1" />
    <path
       style="fill:none;stroke:#000000;stroke-width:1.19980133px;stroke-linecap:butt;stroke-linejoin:miter;stroke-opacity:1"
       d="m 269.44213,89.487687 15.10654,-15.10659"
       id="path3226-5"
       inkscape:connector-curvature="0" />
    <path
       inkscape:connector-curvature="0"
       id="path3228-7"
       d="m 269.44213,97.167155 15.10654,-15.10659"
       style="fill:none;stroke:#000000;stroke-width:1.19980133px;stroke-linecap:butt;stroke-linejoin:miter;stroke-opacity:1" />
    <path
       inkscape:connector-curvature="0"
       id="path3230-5"
       d="M 269.44213,104.84662 284.54867,89.740051"
       style="fill:none;stroke:#000000;stroke-width:1.19980133px;stroke-linecap:butt;stroke-linejoin:miter;stroke-opacity:1" />
    <path
       style="fill:none;stroke:#000000;stroke-width:1.19980133px;stroke-linecap:butt;stroke-linejoin:miter;stroke-opacity:1"
       d="M 269.44213,112.52609 284.54867,97.419521"
       id="path3232-4"
       inkscape:connector-curvature="0" />
    <path
       style="fill:none;stroke:#000000;stroke-width:1.19980133px;stroke-linecap:butt;stroke-linejoin:miter;stroke-opacity:1"
       d="m 269.44213,120.20555 15.10654,-15.10656"
       id="path3234-1"
       inkscape:connector-curvature="0" />
    <path
       style="fill:none;stroke:#000000;stroke-width:1.19980133px;stroke-linecap:butt;stroke-linejoin:miter;stroke-opacity:1"
       d="m 269.44213,127.88502 15.10654,-15.10656"
       id="path3236-2"
       inkscape:connector-curvature="0" />
    <path
       inkscape:connector-curvature="0"
       id="path3238-0"
       d="m 272.09197,132.91463 12.4567,-12.4567"
       style="fill:none;stroke:#000000;stroke-width:1.19980133px;stroke-linecap:butt;stroke-linejoin:miter;stroke-opacity:1" />
    <path
       style="fill:none;stroke:#000000;stroke-width:1.19980133px;stroke-linecap:butt;stroke-linejoin:miter;stroke-opacity:1"
       d="m 279.80541,132.88067 4.74326,-4.74326"
       id="path3240-0"
       inkscape:connector-curvature="0" />
    <path
       inkscape:connector-curvature="0"
       id="path3242-1"
       d="m 306.48616,106.19991 14.6704,-14.670407"
       style="fill:none;stroke:#000000;stroke-width:1.19980133px;stroke-linecap:butt;stroke-linejoin:miter;stroke-opacity:1" />
    <path
       style="fill:none;stroke:#000000;stroke-width:1.19980133px;stroke-linecap:butt;stroke-linejoin:miter;stroke-opacity:1"
       d="m 306.48616,113.87937 14.6704,-14.670398"
       id="path3244-4"
       inkscape:connector-curvature="0" />
    <path
       style="fill:none;stroke:#000000;stroke-width:1.19980133px;stroke-linecap:butt;stroke-linejoin:miter;stroke-opacity:1"
       d="m 306.48616,121.55884 14.6704,-14.6704"
       id="path3246-6"
       inkscape:connector-curvature="0" />
    <path
       inkscape:connector-curvature="0"
       id="path3248-0"
       d="m 306.48616,129.2383 14.6704,-14.67039"
       style="fill:none;stroke:#000000;stroke-width:1.19980133px;stroke-linecap:butt;stroke-linejoin:miter;stroke-opacity:1" />
    <path
       style="fill:none;stroke:#000000;stroke-width:1.19980133px;stroke-linecap:butt;stroke-linejoin:miter;stroke-opacity:1"
       d="m 310.49431,132.90961 10.6435,-10.6435"
       id="path3250-7"
       inkscape:connector-curvature="0" />
    <path
       inkscape:connector-curvature="0"
       id="path3252-1"
       d="m 318.07489,133.00852 3.02752,-3.02753"
       style="fill:none;stroke:#000000;stroke-width:1.19980133px;stroke-linecap:butt;stroke-linejoin:miter;stroke-opacity:1" />
    <path
       style="fill:none;stroke:#000000;stroke-width:1.19980133px;stroke-linecap:butt;stroke-linejoin:miter;stroke-opacity:1"
       d="m 306.48616,60.123081 14.6704,-14.670396"
       id="path3258-7"
       inkscape:connector-curvature="0" />
    <path
       inkscape:connector-curvature="0"
       id="path3260-7"
       d="m 306.48616,67.802548 14.6704,-14.670397"
       style="fill:none;stroke:#000000;stroke-width:1.19980133px;stroke-linecap:butt;stroke-linejoin:miter;stroke-opacity:1" />
    <path
       inkscape:connector-curvature="0"
       id="path3262-7"
       d="m 306.48616,75.482016 14.6704,-14.670398"
       style="fill:none;stroke:#000000;stroke-width:1.19980133px;stroke-linecap:butt;stroke-linejoin:miter;stroke-opacity:1" />
    <path
       style="fill:none;stroke:#000000;stroke-width:1.19980133px;stroke-linecap:butt;stroke-linejoin:miter;stroke-opacity:1"
       d="m 306.48616,83.161482 14.6704,-14.670397"
       id="path3264-7"
       inkscape:connector-curvature="0" />
    <path
       inkscape:connector-curvature="0"
       id="path3266-3"
       d="m 306.48616,90.840965 14.6704,-14.670412"
       style="fill:none;stroke:#000000;stroke-width:1.19980133px;stroke-linecap:butt;stroke-linejoin:miter;stroke-opacity:1" />
    <path
       style="fill:none;stroke:#000000;stroke-width:1.19980133px;stroke-linecap:butt;stroke-linejoin:miter;stroke-opacity:1"
       d="m 306.48616,98.520433 14.6704,-14.670414"
       id="path3268-3"
       inkscape:connector-curvature="0" />
    <path
       style="fill:none;stroke:#000000;stroke-width:1.19980121px;stroke-linecap:butt;stroke-linejoin:miter;stroke-opacity:1"
       d="m 306.53015,44.720169 4.78517,-4.785186"
       id="path3274-5"
       inkscape:connector-curvature="0" />
    <path
       inkscape:connector-curvature="0"
       id="path3276-9"
       d="M 306.49735,52.432414 318.99479,39.934982"
       style="fill:none;stroke:#000000;stroke-width:1.19980121px;stroke-linecap:butt;stroke-linejoin:miter;stroke-opacity:1" />
  </g>
</svg>
